[gd_scene load_steps=3 format=3 uid="uid://c3b5prlpvjs1j"]

[ext_resource type="PackedScene" uid="uid://dyov0ndw63xye" path="res://ui/common/VerticalMenu.tscn" id="1"]
[ext_resource type="Script" path="res://ui/network/menu/StartMenu.gd" id="2"]

[node name="ConnectionMenu" instance=ExtResource( "1" )]
minimum_size = Vector2(240, 0)
script = ExtResource( "2" )

[node name="Layout" parent="." index="0"]
offset_right = 224.0
offset_bottom = 185.0
theme_override_constants/separation = 16

[node name="HBoxContainer" type="HBoxContainer" parent="Layout" index="0"]
offset_right = 208.0
offset_bottom = 33.0
theme_override_constants/separation = 16

[node name="Label" type="Label" parent="Layout/HBoxContainer" index="0"]
offset_top = 2.0
offset_right = 29.0
offset_bottom = 31.0
text = "Nick"

[node name="LineEdit" type="LineEdit" parent="Layout/HBoxContainer" index="1"]
offset_left = 45.0
offset_right = 208.0
offset_bottom = 33.0
size_flags_horizontal = 3
placeholder_text = "Fulane1337"

[node name="HSeparator" type="HSeparator" parent="Layout" index="1"]
offset_top = 49.0
offset_right = 208.0
offset_bottom = 53.0

[node name="JoinButton" type="Button" parent="Layout" index="2"]
minimum_size = Vector2(80, 0)
offset_top = 69.0
offset_right = 208.0
offset_bottom = 111.0
size_flags_horizontal = 3
text = "Join"

[node name="HostButton" type="Button" parent="Layout" index="3"]
minimum_size = Vector2(80, 0)
offset_top = 127.0
offset_right = 208.0
offset_bottom = 169.0
size_flags_horizontal = 3
text = "Host"

[connection signal="pressed" from="Layout/JoinButton" to="." method="join"]
[connection signal="pressed" from="Layout/HostButton" to="." method="host"]
