[gd_scene load_steps=4 format=3 uid="uid://d1xmvkq4rvegi"]

[ext_resource type="Script" path="res://Main.gd" id="1_u0nws"]
[ext_resource type="PackedScene" uid="uid://cpia4h2idwbll" path="res://ui/main/MenuManager.tscn" id="2_is6qh"]
[ext_resource type="PackedScene" uid="uid://dipek8pdw3mu8" path="res://ui/common/Alert.tscn" id="2_oplfe"]

[node name="Main" type="Control"]
anchor_right = 1.0
anchor_bottom = 1.0
script = ExtResource( "1_u0nws" )
alert_scene = ExtResource( "2_oplfe" )

[node name="MenuManager" parent="." instance=ExtResource( "2_is6qh" )]

[node name="Alerts" type="VBoxContainer" parent="."]
anchor_right = 1.0
