[gd_scene load_steps=3 format=3 uid="uid://cju6kqc64idkd"]

[ext_resource type="Theme" uid="uid://ckp8gvf5508v4" path="res://ui/theme/Theme.tres" id="1_0knw1"]
[ext_resource type="Script" path="res://ui/session_view/sidebar/SidebarContentsBase.gd" id="2_mko56"]

[node name="SidebarContentsBase" type="VBoxContainer"]
minimum_size = Vector2(224, 688)
offset_right = 40.0
offset_bottom = 40.0
size_flags_horizontal = 3
theme = ExtResource( "1_0knw1" )
script = ExtResource( "2_mko56" )
