[gd_scene load_steps=2 format=3 uid="uid://caqhsqj4p5kqj"]

[ext_resource type="Script" path="res://network/Network.gd" id="1_vf3sh"]

[node name="Network" type="Node"]
script = ExtResource( "1_vf3sh" )
