[gd_scene load_steps=3 format=3 uid="uid://j342dwmdepv4"]

[ext_resource type="PackedScene" uid="uid://dyov0ndw63xye" path="res://ui/common/VerticalMenu.tscn" id="1_f6b3c"]
[ext_resource type="Script" path="res://ui/main/MainMenu.gd" id="2_k2byb"]

[node name="MainMenu" instance=ExtResource( "1_f6b3c" )]
script = ExtResource( "2_k2byb" )

[node name="Layout" parent="." index="0"]
minimum_size = Vector2(150, 0)
offset_right = 166.0
offset_bottom = 162.0
theme_override_constants/separation = 10

[node name="Join" type="Button" parent="Layout" index="0"]
offset_right = 150.0
offset_bottom = 42.0
text = "Join"

[node name="Host" type="Button" parent="Layout" index="1"]
offset_top = 52.0
offset_right = 150.0
offset_bottom = 94.0
text = "Host"

[node name="Quit" type="Button" parent="Layout" index="2"]
offset_top = 104.0
offset_right = 150.0
offset_bottom = 146.0
text = "Quit"

[connection signal="pressed" from="Layout/Join" to="." method="_on_join_pressed"]
[connection signal="pressed" from="Layout/Host" to="." method="_on_host_pressed"]
[connection signal="pressed" from="Layout/Quit" to="." method="_on_quit_pressed"]
