[gd_resource type="StyleBoxFlat" format=2]

[resource]
content_margin_left = 4.0
content_margin_right = 4.0
content_margin_top = 8.0
content_margin_bottom = 8.0
bg_color = Color( 0.027451, 0.317647, 0.45098, 1 )
corner_radius_top_left = 4
corner_radius_top_right = 4
corner_radius_bottom_right = 4
corner_radius_bottom_left = 4
